current directory: /home/beltran/workspace/sample_app/gems/gems/websocket-driver-0.6.5/ext/websocket-driver
/home/beltran/.rbenv/versions/2.4.2/bin/ruby -r ./siteconf20171208-3203-173tsf8.rb extconf.rb
creating Makefile

current directory: /home/beltran/workspace/sample_app/gems/gems/websocket-driver-0.6.5/ext/websocket-driver
make "DESTDIR=" clean

current directory: /home/beltran/workspace/sample_app/gems/gems/websocket-driver-0.6.5/ext/websocket-driver
make "DESTDIR="
compiling websocket_mask.c
linking shared-object websocket_mask.so

current directory: /home/beltran/workspace/sample_app/gems/gems/websocket-driver-0.6.5/ext/websocket-driver
make "DESTDIR=" install
/usr/bin/install -c -m 0755 websocket_mask.so ./.gem.20171208-3203-wkaq9a
